<?xml version="1.0" encoding="UTF-8" ?>
<!DOCTYPE svg PUBLIC "-//W3C//DTD SVG 1.1//EN" "http://www.w3.org/Graphics/SVG/1.1/DTD/svg11.dtd">
<svg width="800pt" height="1000pt" viewBox="0 0 800 1000" version="1.1" xmlns="http://www.w3.org/2000/svg">
<g id="#f5f6f7ff">
<path fill="#f5f6f7" opacity="1.00" d=" M 0.00 0.00 L 394.00 0.00 C 394.00 333.33 394.00 666.67 394.00 1000.00 L 0.00 1000.00 L 0.00 0.00 Z" />
<path fill="#f5f6f7" opacity="1.00" d=" M 406.00 0.00 L 800.00 0.00 L 800.00 1000.00 L 406.00 1000.00 C 406.02 829.34 405.97 658.68 406.02 488.02 C 431.59 488.00 457.16 487.95 482.73 488.05 C 484.09 490.88 486.58 493.46 490.01 493.06 C 493.75 493.92 496.93 490.57 497.68 487.20 C 496.86 485.17 495.31 483.56 493.66 482.18 C 489.99 481.48 484.99 481.73 483.53 485.88 C 457.70 486.14 431.86 485.96 406.02 485.97 C 405.97 323.98 406.02 161.99 406.00 0.00 Z" />
</g>
</svg>
