<?xml version="1.0" encoding="UTF-8" ?>
<!DOCTYPE svg PUBLIC "-//W3C//DTD SVG 1.1//EN" "http://www.w3.org/Graphics/SVG/1.1/DTD/svg11.dtd">
<svg width="800pt" height="1000pt" viewBox="0 0 800 1000" version="1.1" xmlns="http://www.w3.org/2000/svg">
<g id="#f5f6f8ff">
<path fill="#f5f6f8" opacity="1.00" d=" M 0.00 0.00 L 394.00 0.00 C 394.00 142.67 393.99 285.35 394.01 428.02 C 393.97 428.71 393.90 430.08 393.87 430.77 C 383.98 432.53 374.30 436.15 366.29 442.29 C 362.46 446.11 358.34 449.71 354.97 453.97 C 349.93 461.82 345.91 470.60 345.03 479.99 C 344.92 483.99 344.94 488.00 345.02 492.01 C 347.08 508.10 356.36 523.15 370.04 531.94 C 377.46 535.96 385.23 540.19 393.92 540.17 C 394.11 693.45 393.95 846.73 394.00 1000.00 L 0.00 1000.00 L 0.00 0.00 Z" />
<path fill="#f5f6f8" opacity="1.00" d=" M 406.00 0.00 L 800.00 0.00 L 800.00 1000.00 L 406.00 1000.00 C 406.06 846.74 405.87 693.47 406.10 540.22 C 418.36 539.03 429.86 533.17 438.79 524.80 C 449.22 513.61 455.91 498.43 455.02 482.97 C 454.17 472.47 450.74 462.07 444.43 453.57 C 438.78 446.15 431.49 439.95 423.03 435.96 C 417.80 433.06 411.77 432.46 406.14 430.73 C 405.83 427.16 406.02 423.58 406.00 420.00 C 406.00 280.00 406.00 140.00 406.00 0.00 Z" />
<path fill="#f5f6f8" opacity="1.00" d=" M 392.32 443.34 C 403.74 441.15 416.06 443.69 425.54 450.48 C 433.86 456.52 440.30 465.45 442.51 475.57 C 446.24 490.06 441.58 506.41 430.68 516.69 C 417.60 529.97 395.56 532.69 379.42 523.55 C 370.37 518.47 363.14 510.12 359.70 500.30 C 355.44 488.52 356.59 474.82 363.05 464.04 C 369.25 453.38 380.12 445.48 392.32 443.34 M 394.37 466.57 C 385.77 469.31 379.11 477.81 379.57 487.00 C 379.62 496.12 386.27 504.47 394.98 506.91 C 400.23 507.80 406.12 507.90 410.73 504.83 C 420.07 499.87 424.23 487.10 419.36 477.66 C 415.13 468.55 404.01 463.43 394.37 466.57 Z" />
</g>
</svg>
